[gd_scene load_steps=6 format=2]

[ext_resource path="res://scenes/DialogueManager.gd" type="Script" id=1]
[ext_resource path="res://addons/dialogue_tree/scripts/dialogue.gd" type="Script" id=2]
[ext_resource path="res://addons/dialogue_tree/assets/Icon.png" type="Texture" id=3]
[ext_resource path="res://assets/Dialogue.tres" type="Resource" id=4]
[ext_resource path="res://scenes/TextBox.tscn" type="PackedScene" id=5]

[node name="DialogueManager" type="Node2D"]
script = ExtResource( 1 )

[node name="Dialogue" type="Node" parent="."]
script = ExtResource( 2 )
__meta__ = {
"_editor_icon": ExtResource( 3 )
}
DialogueResource = ExtResource( 4 )

[node name="UILayer" type="CanvasLayer" parent="."]

[node name="TextBox" parent="UILayer" instance=ExtResource( 5 )]
[connection signal="Choice_Next" from="Dialogue" to="." method="_on_Dialogue_Choice_Next"]
[connection signal="Conditonal_Data_Needed" from="Dialogue" to="." method="_on_Dialogue_Conditonal_Data_Needed"]
[connection signal="Dialogue_Ended" from="Dialogue" to="." method="_on_Dialogue_Dialogue_Ended"]
[connection signal="Dialogue_Next" from="Dialogue" to="." method="_on_Dialogue_Dialogue_Next"]
[connection signal="Dialogue_Started" from="Dialogue" to="." method="_on_Dialogue_Dialogue_Started"]
[connection signal="choice_pressed" from="UILayer/TextBox" to="." method="_on_TextBox_choice_pressed"]
